# Blender MTL File: 'scene.blend'
# Material Count: 8

newmtl CORDA
Ns 56.250000
Ka 1.000000 1.000000 1.000000
Kd 0.173341 0.076242 0.045220
Ks 0.250000 0.250000 0.250000
Ke 0.000000 0.000000 0.000000
Ni 1.000000
d 1.000000
illum 2

newmtl LUZ
Ns 900.000000
Ka 1.000000 1.000000 1.000000
Kd 0.800000 0.365790 0.071439
Ks 1.000000 1.000000 1.000000
Ke 0.000000 0.000000 0.000000
Ni 1.000000
d 1.000000
illum 2

newmtl MADEIRA
Ns 56.250000
Ka 1.000000 1.000000 1.000000
Kd 0.800000 0.800000 0.800000
Ks 0.250000 0.250000 0.250000
Ke 0.000000 0.000000 0.000000
Ni 1.450000
d 1.000000
illum 2
map_Kd textures/plywood_diff_1k.jpg

newmtl METAL01
Ns 900.000000
Ka 1.000000 1.000000 1.000000
Kd 0.042027 0.042027 0.042027
Ks 1.000000 1.000000 1.000000
Ke 0.000000 0.000000 0.000000
Ni 1.000000
d 1.000000
illum 2

newmtl METAL02
Ns 900.000000
Ka 1.000000 1.000000 1.000000
Kd 0.094626 0.094626 0.094626
Ks 1.000000 1.000000 1.000000
Ke 0.000000 0.000000 0.000000
Ni 1.000000
d 1.000000
illum 2

newmtl Material.005
Ns 225.000000
Ka 1.000000 1.000000 1.000000
Kd 0.042024 0.042024 0.042024
Ks 0.000000 0.000000 0.000000
Ke 0.000000 0.000000 0.000000
Ni 1.000000
d 1.000000
illum 1

newmtl Material.010
Ns 225.000000
Ka 1.000000 1.000000 1.000000
Kd 0.800000 0.405363 0.039448
Ks 0.500000 0.500000 0.500000
Ke 0.000000 0.000000 0.000000
Ni 1.000000
d 1.000000
illum 2

newmtl PEDRA
Ns 0.000000
Ka 1.000000 1.000000 1.000000
Kd 0.800000 0.800000 0.800000
Ks 0.250000 0.250000 0.250000
Ke 0.000000 0.000000 0.000000
Ni 1.450000
d 1.000000
illum 2
map_Kd textures/home_k.jpg
